\relax 
\providecommand\hyper@newdestlabel[2]{}
\catcode `"\active 
\providecommand\HyperFirstAtBeginDocument{\AtBeginDocument}
\HyperFirstAtBeginDocument{\ifx\hyper@anchor\@undefined
\global\let\oldcontentsline\contentsline
\gdef\contentsline#1#2#3#4{\oldcontentsline{#1}{#2}{#3}}
\global\let\oldnewlabel\newlabel
\gdef\newlabel#1#2{\newlabelxx{#1}#2}
\gdef\newlabelxx#1#2#3#4#5#6{\oldnewlabel{#1}{{#2}{#3}}}
\AtEndDocument{\ifx\hyper@anchor\@undefined
\let\contentsline\oldcontentsline
\let\newlabel\oldnewlabel
\fi}
\fi}
\global\let\hyper@last\relax 
\gdef\HyperFirstAtBeginDocument#1{#1}
\providecommand\HyField@AuxAddToFields[1]{}
\providecommand\HyField@AuxAddToCoFields[2]{}
\select@language{english}
\@writefile{toc}{\select@language{english}}
\@writefile{lof}{\select@language{english}}
\@writefile{lot}{\select@language{english}}
\select@language{swedish}
\@writefile{toc}{\select@language{swedish}}
\@writefile{lof}{\select@language{swedish}}
\@writefile{lot}{\select@language{swedish}}
\select@language{english}
\@writefile{toc}{\select@language{english}}
\@writefile{lof}{\select@language{english}}
\@writefile{lot}{\select@language{english}}
\select@language{swedish}
\@writefile{toc}{\select@language{swedish}}
\@writefile{lof}{\select@language{swedish}}
\@writefile{lot}{\select@language{swedish}}
\select@language{english}
\@writefile{toc}{\select@language{english}}
\@writefile{lof}{\select@language{english}}
\@writefile{lot}{\select@language{english}}
\@writefile{toc}{\contentsline {chapter}{Contents}{iii}{chapter*.1}}
\@writefile{toc}{\contentsline {chapter}{\numberline {1}Introduction}{1}{chapter.1}}
\@writefile{lof}{\addvspace {10\p@ }}
\@writefile{lot}{\addvspace {10\p@ }}
\citation{Sanger1977}
\citation{Staley1985}
\citation{Schmidt1991,Hugenholtz1998}
\citation{Handelsman1998}
\citation{Chen2005}
\citation{Venter2004}
\@writefile{toc}{\contentsline {chapter}{\numberline {2}Theory}{3}{chapter.2}}
\@writefile{lof}{\addvspace {10\p@ }}
\@writefile{lot}{\addvspace {10\p@ }}
\@writefile{toc}{\contentsline {section}{\numberline {2.1}Metagenomics}{3}{section.2.1}}
\citation{Chial2008}
\citation{Miller2010}
\@writefile{lof}{\contentsline {figure}{\numberline {2.1}{\ignorespaces Shotgun sequencing}}{4}{figure.caption.2}}
\providecommand*\caption@xref[2]{\@setref\relax\@undefined{#1}}
\newlabel{fig:ess}{{2.1}{4}{Shotgun sequencing}{figure.caption.2}{}}
\newlabel{fig:ess@cref}{{[figure][1][2]2.1}{4}}
\citation{Teeling2004b}
\@writefile{lot}{\contentsline {table}{\numberline {2.1}{\ignorespaces $k$-mer composition vector of sequence $AGAGATG$ with $k = 2$.\relax }}{5}{table.caption.3}}
\newlabel{tbl:composition}{{2.1}{5}{$k$-mer composition vector of sequence $AGAGATG$ with $k = 2$.\relax }{table.caption.3}{}}
\newlabel{tbl:composition@cref}{{[table][1][2]2.1}{5}}
\@writefile{toc}{\contentsline {subsection}{\numberline {2.1.1}Composition}{5}{subsection.2.1.1}}
\@writefile{toc}{\contentsline {subsection}{\numberline {2.1.2}Coverage}{5}{subsection.2.1.2}}
\@writefile{lof}{\contentsline {figure}{\numberline {2.2}{\ignorespaces Coverage}}{5}{figure.caption.4}}
\newlabel{fig:cov}{{2.2}{5}{Coverage}{figure.caption.4}{}}
\newlabel{fig:cov@cref}{{[figure][2][2]2.2}{5}}
\citation{Mitchell1997}
\@writefile{toc}{\contentsline {section}{\numberline {2.2}Machine Learning}{6}{section.2.2}}
\@writefile{lot}{\contentsline {table}{\numberline {2.2}{\ignorespaces Features of animals and their label as species.\relax }}{7}{table.caption.5}}
\newlabel{tbl:animals}{{2.2}{7}{Features of animals and their label as species.\relax }{table.caption.5}{}}
\newlabel{tbl:animals@cref}{{[table][2][2]2.2}{7}}
\@writefile{toc}{\contentsline {subsection}{\numberline {2.2.1}Supervised learning}{7}{subsection.2.2.1}}
\citation{Bishop2007}
\@writefile{lof}{\contentsline {figure}{\numberline {2.3}{\ignorespaces Supervised learning}}{8}{figure.caption.6}}
\newlabel{fig:supervised_PCA_SVM}{{2.3}{8}{Supervised learning}{figure.caption.6}{}}
\newlabel{fig:supervised_PCA_SVM@cref}{{[figure][3][2]2.3}{8}}
\@writefile{lof}{\contentsline {figure}{\numberline {2.4}{\ignorespaces Regression}}{8}{figure.caption.7}}
\newlabel{fig:polinomial_regression}{{2.4}{8}{Regression}{figure.caption.7}{}}
\newlabel{fig:polinomial_regression@cref}{{[figure][4][2]2.4}{8}}
\@writefile{toc}{\contentsline {subsection}{\numberline {2.2.2}Unsupervised}{8}{subsection.2.2.2}}
\@writefile{lof}{\contentsline {figure}{\numberline {2.5}{\ignorespaces Supervised learning}}{9}{figure.caption.8}}
\newlabel{fig:unsupervised_PCA_KMeans}{{2.5}{9}{Supervised learning}{figure.caption.8}{}}
\newlabel{fig:unsupervised_PCA_KMeans@cref}{{[figure][5][2]2.5}{9}}
\@writefile{toc}{\contentsline {subsubsection}{EM}{9}{subsubsection*.9}}
\@writefile{toc}{\contentsline {subsubsection}{Gaussian Mixture Model with EM}{9}{subsubsection*.10}}
\citation{Pedregosa2011}
\citation{Blei2006}
\citation{Sethuraman1994}
\@writefile{lof}{\contentsline {figure}{\numberline {2.6}{\ignorespaces Covariance types for GMM}}{10}{figure.caption.11}}
\newlabel{fig:CovarianceType}{{2.6}{10}{Covariance types for GMM}{figure.caption.11}{}}
\newlabel{fig:CovarianceType@cref}{{[figure][6][2]2.6}{10}}
\@writefile{toc}{\contentsline {subsubsection}{Dirichlet Process Gaussian Mixture Model (DPGMM)}{10}{subsubsection*.12}}
\citation{KevinBeyer}
\citation{Bishop2007}
\@writefile{toc}{\contentsline {subsection}{\numberline {2.2.3}Dimensionality reduction}{11}{subsection.2.2.3}}
\@writefile{lof}{\contentsline {figure}{\numberline {2.7}{\ignorespaces PCA of multivariate Gaussian distribution}}{11}{figure.caption.13}}
\newlabel{fig:GaussianScatterPCA}{{2.7}{11}{PCA of multivariate Gaussian distribution}{figure.caption.13}{}}
\newlabel{fig:GaussianScatterPCA@cref}{{[figure][7][2]2.7}{11}}
\@writefile{toc}{\contentsline {subsection}{\numberline {2.2.4}Metrics for evaluating clustering results}{11}{subsection.2.2.4}}
\@writefile{toc}{\contentsline {subsubsection}{Presision and Recall}{11}{subsubsection*.14}}
\citation{Rand1971,Hubert1985}
\@writefile{toc}{\contentsline {subsubsection}{Adjusted Rand Index}{12}{subsubsection*.15}}
\citation{AlnebergBjarnason2014}
\citation{Perez2007}
\citation{Oliphant2007}
\citation{Cock2009}
\citation{Pedregosa2011}
\citation{Hunter2007}
\citation{Oliphant2007}
\citation{Koster2012}
\@writefile{toc}{\contentsline {chapter}{\numberline {3}Methods}{13}{chapter.3}}
\@writefile{lof}{\addvspace {10\p@ }}
\@writefile{lot}{\addvspace {10\p@ }}
\@writefile{toc}{\contentsline {section}{\numberline {3.1}Datasets}{13}{section.3.1}}
\@writefile{toc}{\contentsline {section}{\numberline {3.2}Software}{13}{section.3.2}}
\@writefile{toc}{\contentsline {subsection}{\numberline {3.2.1}Python}{13}{subsection.3.2.1}}
\citation{Langmead2012}
\citation{Li2009}
\citation{Quinlan2010b}
\@writefile{toc}{\contentsline {subsection}{\numberline {3.2.2}Snakemake, GitHub \& BitBucket}{14}{subsection.3.2.2}}
\@writefile{toc}{\contentsline {subsection}{\numberline {3.2.3}CONCOCT}{14}{subsection.3.2.3}}
\newlabel{GMM}{{{step~6}}{14}{CONCOCT}{Item.10}{}}
\newlabel{GMM@cref}{{[enumi][6][]{step~6}}{14}}
\@writefile{toc}{\contentsline {chapter}{\numberline {4}Results}{16}{chapter.4}}
\@writefile{lof}{\addvspace {10\p@ }}
\@writefile{lot}{\addvspace {10\p@ }}
\@writefile{toc}{\contentsline {section}{\numberline {4.1}Setup}{16}{section.4.1}}
\@writefile{lof}{\contentsline {figure}{\numberline {4.1}{\ignorespaces Precision, Recall and ARI for the different Covariance types.\relax }}{17}{figure.caption.16}}
\newlabel{fig:complete_pre_rec_adjrand_covariance}{{4.1}{17}{Precision, Recall and ARI for the different Covariance types.\relax }{figure.caption.16}{}}
\newlabel{fig:complete_pre_rec_adjrand_covariance@cref}{{[figure][1][4]4.1}{17}}
\@writefile{toc}{\contentsline {section}{\numberline {4.2}Results per parameter}{17}{section.4.2}}
\@writefile{toc}{\contentsline {subsection}{\numberline {4.2.1}Covariance}{17}{subsection.4.2.1}}
\@writefile{lof}{\contentsline {figure}{\numberline {4.2}{\ignorespaces Execution in minutes for the different Covariance types.\relax }}{18}{figure.caption.17}}
\newlabel{fig:execution_time_covariance}{{4.2}{18}{Execution in minutes for the different Covariance types.\relax }{figure.caption.17}{}}
\newlabel{fig:execution_time_covariance@cref}{{[figure][2][4]4.2}{18}}
\@writefile{toc}{\contentsline {subsection}{\numberline {4.2.2}Principal Component Analysis}{18}{subsection.4.2.2}}
\@writefile{toc}{\contentsline {subsection}{\numberline {4.2.3}Threshold on contig length}{18}{subsection.4.2.3}}
\@writefile{lof}{\contentsline {figure}{\numberline {4.3}{\ignorespaces Precision, Recall and ARI for different levels of PCA.\relax }}{19}{figure.caption.18}}
\newlabel{fig:complete_pre_rec_adjrand_pca}{{4.3}{19}{Precision, Recall and ARI for different levels of PCA.\relax }{figure.caption.18}{}}
\newlabel{fig:complete_pre_rec_adjrand_pca@cref}{{[figure][3][4]4.3}{19}}
\@writefile{lof}{\contentsline {figure}{\numberline {4.4}{\ignorespaces Number of PCA components needed to explain the given percentage of variance.\relax }}{19}{figure.caption.19}}
\newlabel{fig:pca_components_pca}{{4.4}{19}{Number of PCA components needed to explain the given percentage of variance.\relax }{figure.caption.19}{}}
\newlabel{fig:pca_components_pca@cref}{{[figure][4][4]4.4}{19}}
\@writefile{lof}{\contentsline {figure}{\numberline {4.5}{\ignorespaces Precision, Recall and ARI when filtering out contigs under threshold.\relax }}{20}{figure.caption.20}}
\newlabel{fig:complete_pre_rec_adjrand_threshold}{{4.5}{20}{Precision, Recall and ARI when filtering out contigs under threshold.\relax }{figure.caption.20}{}}
\newlabel{fig:complete_pre_rec_adjrand_threshold@cref}{{[figure][5][4]4.5}{20}}
\@writefile{lof}{\contentsline {figure}{\numberline {4.6}{\ignorespaces Filtering out contigs can effect number of components after PCA.\relax }}{20}{figure.caption.21}}
\newlabel{fig:pca_components_threshold}{{4.6}{20}{Filtering out contigs can effect number of components after PCA.\relax }{figure.caption.21}{}}
\newlabel{fig:pca_components_threshold@cref}{{[figure][6][4]4.6}{20}}
\@writefile{lof}{\contentsline {figure}{\numberline {4.7}{\ignorespaces Execution in minutes for the different thresholds.\relax }}{21}{figure.caption.22}}
\newlabel{fig:execution_time_threshold}{{4.7}{21}{Execution in minutes for the different thresholds.\relax }{figure.caption.22}{}}
\newlabel{fig:execution_time_threshold@cref}{{[figure][7][4]4.7}{21}}
\@writefile{lof}{\contentsline {figure}{\numberline {4.8}{\ignorespaces The number of contigs that passed the threshold, used for fitting.\relax }}{21}{figure.caption.23}}
\newlabel{fig:contigs_pass_threshold_threshold}{{4.8}{21}{The number of contigs that passed the threshold, used for fitting.\relax }{figure.caption.23}{}}
\newlabel{fig:contigs_pass_threshold_threshold@cref}{{[figure][8][4]4.8}{21}}
\@writefile{toc}{\contentsline {section}{\numberline {4.3}Number of samples}{21}{section.4.3}}
\@writefile{lof}{\contentsline {figure}{\numberline {4.9}{\ignorespaces Precision, Recall and ARI when using different number of samples.\relax }}{22}{figure.caption.24}}
\newlabel{fig:complete_pre_rec_adjrand_samples}{{4.9}{22}{Precision, Recall and ARI when using different number of samples.\relax }{figure.caption.24}{}}
\newlabel{fig:complete_pre_rec_adjrand_samples@cref}{{[figure][9][4]4.9}{22}}
\@writefile{lof}{\contentsline {figure}{\numberline {4.10}{\ignorespaces Number of components after PCA for different number of samples.\relax }}{22}{figure.caption.25}}
\newlabel{fig:pca_components_samples}{{4.10}{22}{Number of components after PCA for different number of samples.\relax }{figure.caption.25}{}}
\newlabel{fig:pca_components_samples@cref}{{[figure][10][4]4.10}{22}}
\@writefile{lot}{\contentsline {table}{\numberline {4.1}{\ignorespaces Number of clusters from CONCOCT using coverage and using coverage + composition.\relax }}{23}{table.caption.26}}
\newlabel{tbl:Total_clust}{{4.1}{23}{Number of clusters from CONCOCT using coverage and using coverage + composition.\relax }{table.caption.26}{}}
\newlabel{tbl:Total_clust@cref}{{[table][1][4]4.1}{23}}
\@writefile{toc}{\contentsline {section}{\numberline {4.4}CONCOCT with selected parameters}{23}{section.4.4}}
\@writefile{toc}{\contentsline {subsection}{\numberline {4.4.1}Coverage only}{23}{subsection.4.4.1}}
\@writefile{lof}{\contentsline {figure}{\numberline {4.11}{\ignorespaces Precision, Recall and ARI for GMM and DPGMM, using only coverage.\relax }}{24}{figure.caption.27}}
\newlabel{fig:Total_cov}{{4.11}{24}{Precision, Recall and ARI for GMM and DPGMM, using only coverage.\relax }{figure.caption.27}{}}
\newlabel{fig:Total_cov@cref}{{[figure][11][4]4.11}{24}}
\@writefile{toc}{\contentsline {subsection}{\numberline {4.4.2}Coverage and composition}{24}{subsection.4.4.2}}
\@writefile{lot}{\contentsline {table}{\numberline {4.2}{\ignorespaces Metrics from CONCOCT using coverage and using coverage + composition.\relax }}{25}{table.caption.28}}
\newlabel{tbl:Total}{{4.2}{25}{Metrics from CONCOCT using coverage and using coverage + composition.\relax }{table.caption.28}{}}
\newlabel{tbl:Total@cref}{{[table][2][4]4.2}{25}}
\@writefile{lof}{\contentsline {figure}{\numberline {4.12}{\ignorespaces Precision, Recall and ARI for GMM and DPGMM, using coverage and composition.\relax }}{26}{figure.caption.29}}
\newlabel{fig:Total_full}{{4.12}{26}{Precision, Recall and ARI for GMM and DPGMM, using coverage and composition.\relax }{figure.caption.29}{}}
\newlabel{fig:Total_full@cref}{{[figure][12][4]4.12}{26}}
\@writefile{toc}{\contentsline {chapter}{\numberline {5}Discussion}{27}{chapter.5}}
\@writefile{lof}{\addvspace {10\p@ }}
\@writefile{lot}{\addvspace {10\p@ }}
\@writefile{toc}{\contentsline {section}{\numberline {5.1}CONCOCT parameters}{27}{section.5.1}}
\@writefile{toc}{\contentsline {subsection}{\numberline {5.1.1}Covariance}{27}{subsection.5.1.1}}
\@writefile{toc}{\contentsline {subsection}{\numberline {5.1.2}Principal Components Analysis}{27}{subsection.5.1.2}}
\@writefile{toc}{\contentsline {subsection}{\numberline {5.1.3}Threshold on contig length}{27}{subsection.5.1.3}}
\@writefile{toc}{\contentsline {section}{\numberline {5.2}Number of samples}{28}{section.5.2}}
\@writefile{toc}{\contentsline {section}{\numberline {5.3}CONCOCT with selected parameters}{28}{section.5.3}}
\@writefile{toc}{\contentsline {subsection}{\numberline {5.3.1}Coverage only}{28}{subsection.5.3.1}}
\@writefile{toc}{\contentsline {subsection}{\numberline {5.3.2}Coverage and composition}{28}{subsection.5.3.2}}
\citation{AlnebergBjarnason2014}
\bibstyle{unsrtnat}
\bibdata{library}
\@writefile{toc}{\contentsline {chapter}{\numberline {6}Conclusion}{29}{chapter.6}}
\@writefile{lof}{\addvspace {10\p@ }}
\@writefile{lot}{\addvspace {10\p@ }}
\bibcite{Sanger1977}{{1}{1977}{{Sanger et~al.}}{{Sanger, Air, Barrell, Brown, Coulson, Fiddes, Hutchison, Slocombe, and Smith}}}
\bibcite{Staley1985}{{2}{1985}{{Staley and Konopka}}{{}}}
\bibcite{Schmidt1991}{{3}{1991}{{Schmidt et~al.}}{{Schmidt, DeLong, and Pace}}}
\bibcite{Hugenholtz1998}{{4}{1998}{{Hugenholtz et~al.}}{{Hugenholtz, Goebel, and Pace}}}
\bibcite{Handelsman1998}{{5}{1998}{{Handelsman et~al.}}{{Handelsman, Rondon, Brady, Clardy, and Goodman}}}
\bibcite{Chen2005}{{6}{2005}{{Chen and Pachter}}{{}}}
\bibcite{Venter2004}{{7}{2004}{{Venter et~al.}}{{Venter, Remington, Heidelberg, Halpern, Rusch, Eisen, Wu, Paulsen, Nelson, Nelson, Fouts, Levy, Knap, Lomas, Nealson, White, Peterson, Hoffman, Parsons, Baden-Tillson, Pfannkoch, Rogers, and Smith}}}
\bibcite{Chial2008}{{8}{2008}{{Chial}}{{}}}
\@writefile{toc}{\contentsline {chapter}{Bibliography}{30}{chapter*.30}}
\bibcite{Miller2010}{{9}{2010}{{Miller et~al.}}{{Miller, Koren, and Sutton}}}
\bibcite{Teeling2004b}{{10}{2004}{{Teeling et~al.}}{{Teeling, Meyerdierks, Bauer, Amann, and Glockner}}}
\bibcite{Mitchell1997}{{11}{1997}{{Mitchell}}{{}}}
\bibcite{Bishop2007}{{12}{2007}{{Bishop}}{{}}}
\bibcite{Pedregosa2011}{{13}{2012}{{Pedregosa et~al.}}{{Pedregosa, Varoquaux, Gramfort, Michel, Thirion, Grisel, Blondel, Prettenhofer, Weiss, Dubourg, Vanderplas, Passos, Cournapeau, Brucher, Perrot, and Duchesnay}}}
\bibcite{Sethuraman1994}{{14}{1994}{{Sethuraman}}{{}}}
\bibcite{Blei2006}{{15}{2006}{{Blei and Jordan}}{{}}}
\bibcite{KevinBeyer}{{16}{1999}{{Beyer et~al.}}{{Beyer, Goldstein, Ramakrishnan, and Shaft}}}
\bibcite{Rand1971}{{17}{1971}{{Rand}}{{}}}
\bibcite{Hubert1985}{{18}{1985}{{Hubert and Arabie}}{{}}}
\bibcite{AlnebergBjarnason2014}{{19}{2014}{{Alneberg et~al.}}{{Alneberg, Bjarnason, de~Bruijn, Schirmer, Quick, Ijaz, Lahti, Loman, Andersson, and Quince}}}
\bibcite{Perez2007}{{20}{2007}{{Perez and Granger}}{{}}}
\bibcite{Oliphant2007}{{21}{2007}{{Oliphant}}{{}}}
\bibcite{Cock2009}{{22}{2009}{{Cock et~al.}}{{Cock, Antao, Chang, Chapman, Cox, Dalke, Friedberg, Hamelryck, Kauff, Wilczynski, and de~Hoon}}}
\bibcite{Hunter2007}{{23}{2007}{{Hunter}}{{}}}
\bibcite{Koster2012}{{24}{2012}{{Koster and Rahmann}}{{}}}
\bibcite{Langmead2012}{{25}{2012}{{Langmead and Salzberg}}{{}}}
\bibcite{Li2009}{{26}{2009}{{Li et~al.}}{{Li, Handsaker, Wysoker, Fennell, Ruan, Homer, Marth, Abecasis, and Durbin}}}
\bibcite{Quinlan2010b}{{27}{2010}{{Quinlan and Hall}}{{}}}
