Experiment,Dataset,Type,Seed,ClusterCount,PCA,Minutes,PassThreshold,Metric,Value
Covariance,Species,diag,2461307742,101,36,10.450000,37627,Precision,0.904510
Covariance,Species,diag,2461307742,101,36,10.450000,37627,Recall,0.881056
Covariance,Species,diag,2461307742,101,36,10.450000,37627,Adjusted Rand Index,0.657854
Covariance,Species,full,132651855,101,36,47.783333,37627,Precision,0.975109
Covariance,Species,full,132651855,101,36,47.783333,37627,Recall,0.970770
Covariance,Species,full,132651855,101,36,47.783333,37627,Adjusted Rand Index,0.953739
Covariance,Species,spherical,1524241885,101,36,10.216667,37627,Precision,0.866148
Covariance,Species,spherical,1524241885,101,36,10.216667,37627,Recall,0.838036
Covariance,Species,spherical,1524241885,101,36,10.216667,37627,Adjusted Rand Index,0.628413
Covariance,Species,tied,3712134593,101,36,9.550000,37627,Precision,0.985811
Covariance,Species,tied,3712134593,101,36,9.550000,37627,Recall,0.987807
Covariance,Species,tied,3712134593,101,36,9.550000,37627,Adjusted Rand Index,0.981072
Covariance,Strain,diag,1551773041,20,11,1.383333,9411,Precision,0.850478
Covariance,Strain,diag,1551773041,20,11,1.383333,9411,Recall,0.771874
Covariance,Strain,diag,1551773041,20,11,1.383333,9411,Adjusted Rand Index,0.634794
Covariance,Strain,full,3518084449,20,11,1.583333,9411,Precision,0.898562
Covariance,Strain,full,3518084449,20,11,1.583333,9411,Recall,0.890438
Covariance,Strain,full,3518084449,20,11,1.583333,9411,Adjusted Rand Index,0.793402
Covariance,Strain,spherical,872460199,20,11,1.483333,9411,Precision,0.817433
Covariance,Strain,spherical,872460199,20,11,1.483333,9411,Recall,0.728620
Covariance,Strain,spherical,872460199,20,11,1.483333,9411,Adjusted Rand Index,0.531069
Covariance,Strain,tied,2802599891,20,11,1.333333,9411,Precision,0.931277
Covariance,Strain,tied,2802599891,20,11,1.333333,9411,Recall,0.929410
Covariance,Strain,tied,2802599891,20,11,1.333333,9411,Adjusted Rand Index,0.877600
Dcomp,Species,0.01,3763994004,139,47,24.916667,33807,Precision,0.995182
Dcomp,Species,0.01,3763994004,139,47,24.916667,33807,Recall,0.968081
Dcomp,Species,0.01,3763994004,139,47,24.916667,33807,Adjusted Rand Index,0.971051
Dcomp,Species,0.1,573921902,138,47,28.616667,33807,Precision,0.995128
Dcomp,Species,0.1,573921902,138,47,28.616667,33807,Recall,0.973326
Dcomp,Species,0.1,573921902,138,47,28.616667,33807,Adjusted Rand Index,0.980584
Dcomp,Species,1,4219352750,138,47,21.266667,33807,Precision,0.967788
Dcomp,Species,1,4219352750,138,47,21.266667,33807,Recall,0.955170
Dcomp,Species,1,4219352750,138,47,21.266667,33807,Adjusted Rand Index,0.930226
Dcomp,Species,10,621124954,140,47,16.416667,33807,Precision,0.979608
Dcomp,Species,10,621124954,140,47,16.416667,33807,Recall,0.959110
Dcomp,Species,10,621124954,140,47,16.416667,33807,Adjusted Rand Index,0.953705
Dcomp,Species,100,1575920902,146,47,34.233333,33807,Precision,0.979608
Dcomp,Species,100,1575920902,146,47,34.233333,33807,Recall,0.938452
Dcomp,Species,100,1575920902,146,47,34.233333,33807,Adjusted Rand Index,0.884186
Dcomp,Strain,0.01,1090451956,36,24,1.350000,6373,Precision,0.945219
Dcomp,Strain,0.01,1090451956,36,24,1.350000,6373,Recall,0.866396
Dcomp,Strain,0.01,1090451956,36,24,1.350000,6373,Adjusted Rand Index,0.875807
Dcomp,Strain,0.1,2785304000,37,24,1.533333,6373,Precision,0.941157
Dcomp,Strain,0.1,2785304000,37,24,1.533333,6373,Recall,0.864859
Dcomp,Strain,0.1,2785304000,37,24,1.533333,6373,Adjusted Rand Index,0.891173
Dcomp,Strain,1,412721154,38,24,1.366667,6373,Precision,0.946646
Dcomp,Strain,1,412721154,38,24,1.366667,6373,Recall,0.857723
Dcomp,Strain,1,412721154,38,24,1.366667,6373,Adjusted Rand Index,0.894588
Dcomp,Strain,10,2551776651,39,24,1.466667,6373,Precision,0.942035
Dcomp,Strain,10,2551776651,39,24,1.466667,6373,Recall,0.855747
Dcomp,Strain,10,2551776651,39,24,1.466667,6373,Adjusted Rand Index,0.890259
Dcomp,Strain,100,3787303000,38,24,1.416667,6373,Precision,0.941706
Dcomp,Strain,100,3787303000,38,24,1.416667,6373,Recall,0.859370
Dcomp,Strain,100,3787303000,38,24,1.416667,6373,Adjusted Rand Index,0.890290
Dirichlet,Species,0.01,3639013402,148,37,18.016667,33807,Precision,0.980167
Dirichlet,Species,0.01,3639013402,148,37,18.016667,33807,Recall,0.955968
Dirichlet,Species,0.01,3639013402,148,37,18.016667,33807,Adjusted Rand Index,0.945262
Dirichlet,Species,0.1,2238096748,151,37,16.283333,33807,Precision,0.983149
Dirichlet,Species,0.1,2238096748,151,37,16.283333,33807,Recall,0.948302
Dirichlet,Species,0.1,2238096748,151,37,16.283333,33807,Adjusted Rand Index,0.941944
Dirichlet,Species,1,1970784417,145,37,14.050000,33807,Precision,0.987248
Dirichlet,Species,1,1970784417,145,37,14.050000,33807,Recall,0.968028
Dirichlet,Species,1,1970784417,145,37,14.050000,33807,Adjusted Rand Index,0.968073
Dirichlet,Species,10,468170306,146,37,17.800000,33807,Precision,0.973725
Dirichlet,Species,10,468170306,146,37,17.800000,33807,Recall,0.962837
Dirichlet,Species,10,468170306,146,37,17.800000,33807,Adjusted Rand Index,0.945682
Dirichlet,Species,100,3240095748,145,37,16.566667,33807,Precision,0.964620
Dirichlet,Species,100,3240095748,145,37,16.566667,33807,Recall,0.961373
Dirichlet,Species,100,3240095748,145,37,16.566667,33807,Adjusted Rand Index,0.940674
Dirichlet,Strain,0.01,2754626802,39,11,1.416667,6373,Precision,0.943792
Dirichlet,Strain,0.01,2754626802,39,11,1.416667,6373,Recall,0.882644
Dirichlet,Strain,0.01,2754626802,39,11,1.416667,6373,Adjusted Rand Index,0.899546
Dirichlet,Strain,0.1,1558607529,39,11,1.466667,6373,Precision,0.949720
Dirichlet,Strain,0.1,1558607529,39,11,1.466667,6373,Recall,0.866945
Dirichlet,Strain,0.1,1558607529,39,11,1.466667,6373,Adjusted Rand Index,0.885944
Dirichlet,Strain,1,1562597562,38,11,1.400000,6373,Precision,0.947634
Dirichlet,Strain,1,1562597562,38,11,1.400000,6373,Recall,0.872434
Dirichlet,Strain,1,1562597562,38,11,1.400000,6373,Adjusted Rand Index,0.866746
Dirichlet,Strain,10,303208318,39,11,1.416667,6373,Precision,0.949610
Dirichlet,Strain,10,303208318,39,11,1.416667,6373,Recall,0.865957
Dirichlet,Strain,10,303208318,39,11,1.416667,6373,Adjusted Rand Index,0.886101
Dirichlet,Strain,100,2560606529,38,11,1.316667,6373,Precision,0.944451
Dirichlet,Strain,100,2560606529,38,11,1.316667,6373,Recall,0.869470
Dirichlet,Strain,100,2560606529,38,11,1.316667,6373,Adjusted Rand Index,0.866699
Fcomp,Species,Fixed,341540113,101,47,9.116667,33807,Precision,0.996033
Fcomp,Species,Fixed,341540113,101,47,9.116667,33807,Recall,0.996033
Fcomp,Species,Fixed,341540113,101,47,9.116667,33807,Adjusted Rand Index,0.992065
Fcomp,Species,Guess,1161742835,71,47,17.450000,33807,Precision,0.810909
Fcomp,Species,Guess,1161742835,71,47,17.450000,33807,Recall,0.994090
Fcomp,Species,Guess,1161742835,71,47,17.450000,33807,Adjusted Rand Index,0.794312
Fcomp,Strain,Fixed,396504641,20,24,1.283333,6373,Precision,0.915249
Fcomp,Strain,Fixed,396504641,20,24,1.283333,6373,Recall,0.924361
Fcomp,Strain,Fixed,396504641,20,24,1.283333,6373,Adjusted Rand Index,0.882690
Fcomp,Strain,Guess,1216707357,11,24,1.700000,6373,Precision,0.720496
Fcomp,Strain,Guess,1216707357,11,24,1.700000,6373,Recall,0.996377
Fcomp,Strain,Guess,1216707357,11,24,1.700000,6373,Adjusted Rand Index,0.531455
Final,Species,Fixed,2520437271,101,37,7.566667,33807,Precision,0.995820
Final,Species,Fixed,2520437271,101,37,7.566667,33807,Recall,0.995820
Final,Species,Fixed,2520437271,101,37,7.566667,33807,Adjusted Rand Index,0.991637
Final,Species,Guess,3340639991,71,37,14.733333,33807,Precision,0.803509
Final,Species,Guess,3340639991,71,37,14.733333,33807,Recall,0.994649
Final,Species,Guess,3340639991,71,37,14.733333,33807,Adjusted Rand Index,0.742939
Final,Strain,Fixed,2775947933,20,11,1.233333,6373,Precision,0.921616
Final,Strain,Fixed,2775947933,20,11,1.233333,6373,Recall,0.924251
Final,Strain,Fixed,2775947933,20,11,1.233333,6373,Adjusted Rand Index,0.895806
Final,Strain,Guess,3596150651,17,11,1.400000,6373,Precision,0.889340
Final,Strain,Guess,3596150651,17,11,1.400000,6373,Recall,0.956856
Final,Strain,Guess,3596150651,17,11,1.400000,6373,Adjusted Rand Index,0.798199
Pca,Species,70,2131068479,101,17,16.416667,37627,Precision,0.909301
Pca,Species,70,2131068479,101,17,16.416667,37627,Recall,0.946145
Pca,Species,70,2131068479,101,17,16.416667,37627,Adjusted Rand Index,0.897580
Pca,Species,71,2131069479,101,18,17.483333,37627,Precision,0.935177
Pca,Species,71,2131069479,101,18,17.483333,37627,Recall,0.940688
Pca,Species,71,2131069479,101,18,17.483333,37627,Adjusted Rand Index,0.849990
Pca,Species,72,2131070482,101,19,21.600000,37627,Precision,0.936269
Pca,Species,72,2131070482,101,19,21.600000,37627,Recall,0.927404
Pca,Species,72,2131070482,101,19,21.600000,37627,Adjusted Rand Index,0.837083
Pca,Species,73,2131071481,101,19,21.700000,37627,Precision,0.927590
Pca,Species,73,2131071481,101,19,21.700000,37627,Recall,0.924555
Pca,Species,73,2131071481,101,19,21.700000,37627,Adjusted Rand Index,0.832747
Pca,Species,74,2131072478,101,20,24.883333,37627,Precision,0.947663
Pca,Species,74,2131072478,101,20,24.883333,37627,Recall,0.950059
Pca,Species,74,2131072478,101,20,24.883333,37627,Adjusted Rand Index,0.904166
Pca,Species,75,2131073480,101,21,27.800000,37627,Precision,0.949287
Pca,Species,75,2131073480,101,21,27.800000,37627,Recall,0.939969
Pca,Species,75,2131073480,101,21,27.800000,37627,Adjusted Rand Index,0.878449
Pca,Species,76,2131074478,101,22,22.266667,37627,Precision,0.947317
Pca,Species,76,2131074478,101,22,22.266667,37627,Recall,0.953599
Pca,Species,76,2131074478,101,22,22.266667,37627,Adjusted Rand Index,0.928365
Pca,Species,77,2131075480,101,22,15.733333,37627,Precision,0.955010
Pca,Species,77,2131075480,101,22,15.733333,37627,Recall,0.956581
Pca,Species,77,2131075480,101,22,15.733333,37627,Adjusted Rand Index,0.928794
Pca,Species,78,2131076480,101,23,21.233333,37627,Precision,0.948594
Pca,Species,78,2131076480,101,23,21.233333,37627,Recall,0.954371
Pca,Species,78,2131076480,101,23,21.233333,37627,Adjusted Rand Index,0.924040
Pca,Species,79,2131077480,101,24,16.316667,37627,Precision,0.953546
Pca,Species,79,2131077480,101,24,16.316667,37627,Recall,0.971515
Pca,Species,79,2131077480,101,24,16.316667,37627,Adjusted Rand Index,0.936276
Pca,Species,80,2132068479,101,25,24.016667,37627,Precision,0.957326
Pca,Species,80,2132068479,101,25,24.016667,37627,Recall,0.956794
Pca,Species,80,2132068479,101,25,24.016667,37627,Adjusted Rand Index,0.930343
Pca,Species,81,2132069479,101,26,14.683333,37627,Precision,0.968214
Pca,Species,81,2132069479,101,26,14.683333,37627,Recall,0.973299
Pca,Species,81,2132069479,101,26,14.683333,37627,Adjusted Rand Index,0.952947
Pca,Species,82,2132070478,101,27,64.850000,37627,Precision,0.968214
Pca,Species,82,2132070478,101,27,64.850000,37627,Recall,0.961799
Pca,Species,82,2132070478,101,27,64.850000,37627,Adjusted Rand Index,0.941819
Pca,Species,83,2132071482,101,28,30.383333,37627,Precision,0.960574
Pca,Species,83,2132071482,101,28,30.383333,37627,Recall,0.963422
Pca,Species,83,2132071482,101,28,30.383333,37627,Adjusted Rand Index,0.943120
Pca,Species,84,2132072479,101,29,16.516667,37627,Precision,0.972101
Pca,Species,84,2132072479,101,29,16.516667,37627,Recall,0.976387
Pca,Species,84,2132072479,101,29,16.516667,37627,Adjusted Rand Index,0.958309
Pca,Species,85,2132073482,101,30,25.450000,37627,Precision,0.969812
Pca,Species,85,2132073482,101,30,25.450000,37627,Recall,0.970291
Pca,Species,85,2132073482,101,30,25.450000,37627,Adjusted Rand Index,0.953218
Pca,Species,86,2132074480,101,31,15.183333,37627,Precision,0.974044
Pca,Species,86,2132074480,101,31,15.183333,37627,Recall,0.978330
Pca,Species,86,2132074480,101,31,15.183333,37627,Adjusted Rand Index,0.961939
Pca,Species,87,2132075480,101,32,16.066667,37627,Precision,0.972820
Pca,Species,87,2132075480,101,32,16.066667,37627,Recall,0.975828
Pca,Species,87,2132075480,101,32,16.066667,37627,Adjusted Rand Index,0.961006
Pca,Species,88,2132076481,101,34,22.016667,37627,Precision,0.973938
Pca,Species,88,2132076481,101,34,22.016667,37627,Recall,0.979022
Pca,Species,88,2132076481,101,34,22.016667,37627,Adjusted Rand Index,0.963287
Pca,Species,89,2132077481,101,35,34.916667,37627,Precision,0.981631
Pca,Species,89,2132077481,101,35,34.916667,37627,Recall,0.979022
Pca,Species,89,2132077481,101,35,34.916667,37627,Adjusted Rand Index,0.968492
Pca,Species,90,2133068481,101,36,23.866667,37627,Precision,0.974949
Pca,Species,90,2133068481,101,36,23.866667,37627,Recall,0.977984
Pca,Species,90,2133068481,101,36,23.866667,37627,Adjusted Rand Index,0.964525
Pca,Species,91,2133069478,101,38,22.216667,37627,Precision,0.974311
Pca,Species,91,2133069478,101,38,22.216667,37627,Recall,0.978916
Pca,Species,91,2133069478,101,38,22.216667,37627,Adjusted Rand Index,0.965144
Pca,Species,92,2133070481,101,40,22.300000,37627,Precision,0.977691
Pca,Species,92,2133070481,101,40,22.300000,37627,Recall,0.983282
Pca,Species,92,2133070481,101,40,22.300000,37627,Adjusted Rand Index,0.970619
Pca,Species,93,2133071481,101,42,31.216667,37627,Precision,0.983415
Pca,Species,93,2133071481,101,42,31.216667,37627,Recall,0.984293
Pca,Species,93,2133071481,101,42,31.216667,37627,Adjusted Rand Index,0.972953
Pca,Species,94,2133072478,101,44,23.883333,37627,Precision,0.983947
Pca,Species,94,2133072478,101,44,23.883333,37627,Recall,0.985784
Pca,Species,94,2133072478,101,44,23.883333,37627,Adjusted Rand Index,0.974689
Pca,Species,95,2133073479,101,47,62.883333,37627,Precision,0.989618
Pca,Species,95,2133073479,101,47,62.883333,37627,Recall,0.988154
Pca,Species,95,2133073479,101,47,62.883333,37627,Adjusted Rand Index,0.977335
Pca,Species,96,2133074479,101,50,36.033333,37627,Precision,0.972181
Pca,Species,96,2133074479,101,50,36.033333,37627,Recall,0.980194
Pca,Species,96,2133074479,101,50,36.033333,37627,Adjusted Rand Index,0.962636
Pca,Species,97,2133075479,101,54,39.816667,37627,Precision,0.986503
Pca,Species,97,2133075479,101,54,39.816667,37627,Recall,0.987887
Pca,Species,97,2133075479,101,54,39.816667,37627,Adjusted Rand Index,0.977287
Pca,Species,98,2133076481,101,59,60.633333,37627,Precision,0.992200
Pca,Species,98,2133076481,101,59,60.633333,37627,Recall,0.991082
Pca,Species,98,2133076481,101,59,60.633333,37627,Adjusted Rand Index,0.980065
Pca,Species,99,2133077480,101,67,35.016667,37627,Precision,0.990150
Pca,Species,99,2133077480,101,67,35.016667,37627,Recall,0.990470
Pca,Species,99,2133077480,101,67,35.016667,37627,Adjusted Rand Index,0.983504
Pca,Species,100,3354633842,101,97,21.950000,37627,Precision,0.987941
Pca,Species,100,3354633842,101,97,21.950000,37627,Recall,0.994197
Pca,Species,100,3354633842,101,97,21.950000,37627,Adjusted Rand Index,0.982508
Pca,Strain,70,2980187389,20,6,1.550000,9411,Precision,0.853112
Pca,Strain,70,2980187389,20,6,1.550000,9411,Recall,0.840927
Pca,Strain,70,2980187389,20,6,1.550000,9411,Adjusted Rand Index,0.677216
Pca,Strain,71,2980188389,20,6,1.450000,9411,Precision,0.853112
Pca,Strain,71,2980188389,20,6,1.450000,9411,Recall,0.840927
Pca,Strain,71,2980188389,20,6,1.450000,9411,Adjusted Rand Index,0.677216
Pca,Strain,72,2980189390,20,6,1.600000,9411,Precision,0.853112
Pca,Strain,72,2980189390,20,6,1.600000,9411,Recall,0.840927
Pca,Strain,72,2980189390,20,6,1.600000,9411,Adjusted Rand Index,0.677216
Pca,Strain,73,2980190389,20,6,1.516667,9411,Precision,0.853112
Pca,Strain,73,2980190389,20,6,1.516667,9411,Recall,0.840927
Pca,Strain,73,2980190389,20,6,1.516667,9411,Adjusted Rand Index,0.677216
Pca,Strain,74,2980191389,20,7,1.500000,9411,Precision,0.855418
Pca,Strain,74,2980191389,20,7,1.500000,9411,Recall,0.867494
Pca,Strain,74,2980191389,20,7,1.500000,9411,Adjusted Rand Index,0.755346
Pca,Strain,75,2980192391,20,7,1.533333,9411,Precision,0.855418
Pca,Strain,75,2980192391,20,7,1.533333,9411,Recall,0.867494
Pca,Strain,75,2980192391,20,7,1.533333,9411,Adjusted Rand Index,0.755346
Pca,Strain,76,2980193393,20,7,1.566667,9411,Precision,0.855418
Pca,Strain,76,2980193393,20,7,1.566667,9411,Recall,0.867494
Pca,Strain,76,2980193393,20,7,1.566667,9411,Adjusted Rand Index,0.755346
Pca,Strain,77,2980194391,20,7,1.650000,9411,Precision,0.855418
Pca,Strain,77,2980194391,20,7,1.650000,9411,Recall,0.867494
Pca,Strain,77,2980194391,20,7,1.650000,9411,Adjusted Rand Index,0.755346
Pca,Strain,78,2980195390,20,7,1.566667,9411,Precision,0.855418
Pca,Strain,78,2980195390,20,7,1.566667,9411,Recall,0.867494
Pca,Strain,78,2980195390,20,7,1.566667,9411,Adjusted Rand Index,0.755346
Pca,Strain,79,2980196393,20,8,1.416667,9411,Precision,0.868811
Pca,Strain,79,2980196393,20,8,1.416667,9411,Recall,0.891426
Pca,Strain,79,2980196393,20,8,1.416667,9411,Adjusted Rand Index,0.789035
Pca,Strain,80,2981187392,20,8,1.416667,9411,Precision,0.867055
Pca,Strain,80,2981187392,20,8,1.416667,9411,Recall,0.889450
Pca,Strain,80,2981187392,20,8,1.416667,9411,Adjusted Rand Index,0.787298
Pca,Strain,81,2981188389,20,8,1.566667,9411,Precision,0.889011
Pca,Strain,81,2981188389,20,8,1.566667,9411,Recall,0.869470
Pca,Strain,81,2981188389,20,8,1.566667,9411,Adjusted Rand Index,0.776832
Pca,Strain,82,2981189389,20,9,1.416667,9411,Precision,0.876166
Pca,Strain,82,2981189389,20,9,1.416667,9411,Recall,0.877484
Pca,Strain,82,2981189389,20,9,1.416667,9411,Adjusted Rand Index,0.761132
Pca,Strain,83,2981190389,20,9,1.450000,9411,Precision,0.876166
Pca,Strain,83,2981190389,20,9,1.450000,9411,Recall,0.877484
Pca,Strain,83,2981190389,20,9,1.450000,9411,Adjusted Rand Index,0.761132
Pca,Strain,84,2981191389,20,9,1.316667,9411,Precision,0.876166
Pca,Strain,84,2981191389,20,9,1.316667,9411,Recall,0.877484
Pca,Strain,84,2981191389,20,9,1.316667,9411,Adjusted Rand Index,0.761132
Pca,Strain,85,2981192391,20,9,1.483333,9411,Precision,0.869689
Pca,Strain,85,2981192391,20,9,1.483333,9411,Recall,0.890767
Pca,Strain,85,2981192391,20,9,1.483333,9411,Adjusted Rand Index,0.789503
Pca,Strain,86,2981193389,20,10,1.400000,9411,Precision,0.881656
Pca,Strain,86,2981193389,20,10,1.400000,9411,Recall,0.895598
Pca,Strain,86,2981193389,20,10,1.400000,9411,Adjusted Rand Index,0.792492
Pca,Strain,87,2981194389,20,10,1.516667,9411,Precision,0.881656
Pca,Strain,87,2981194389,20,10,1.516667,9411,Recall,0.895598
Pca,Strain,87,2981194389,20,10,1.516667,9411,Adjusted Rand Index,0.792492
Pca,Strain,88,2981195390,20,10,1.466667,9411,Precision,0.881656
Pca,Strain,88,2981195390,20,10,1.466667,9411,Recall,0.895598
Pca,Strain,88,2981195390,20,10,1.466667,9411,Adjusted Rand Index,0.792492
Pca,Strain,89,2981196391,20,11,1.666667,9411,Precision,0.898452
Pca,Strain,89,2981196391,20,11,1.666667,9411,Recall,0.890548
Pca,Strain,89,2981196391,20,11,1.666667,9411,Adjusted Rand Index,0.793419
Pca,Strain,90,2982187389,20,11,1.583333,9411,Precision,0.898452
Pca,Strain,90,2982187389,20,11,1.583333,9411,Recall,0.890548
Pca,Strain,90,2982187389,20,11,1.583333,9411,Adjusted Rand Index,0.793419
Pca,Strain,91,2982188389,20,12,1.533333,9411,Precision,0.924141
Pca,Strain,91,2982188389,20,12,1.533333,9411,Recall,0.910199
Pca,Strain,91,2982188389,20,12,1.533333,9411,Adjusted Rand Index,0.815495
Pca,Strain,92,2982189389,20,12,1.700000,9411,Precision,0.924141
Pca,Strain,92,2982189389,20,12,1.700000,9411,Recall,0.910199
Pca,Strain,92,2982189389,20,12,1.700000,9411,Adjusted Rand Index,0.815495
Pca,Strain,93,2982190392,20,13,1.633333,9411,Precision,0.903612
Pca,Strain,93,2982190392,20,13,1.633333,9411,Recall,0.907564
Pca,Strain,93,2982190392,20,13,1.633333,9411,Adjusted Rand Index,0.828465
Pca,Strain,94,2982191389,20,13,1.750000,9411,Precision,0.925129
Pca,Strain,94,2982191389,20,13,1.750000,9411,Recall,0.913821
Pca,Strain,94,2982191389,20,13,1.750000,9411,Adjusted Rand Index,0.820583
Pca,Strain,95,2982192389,20,14,2.150000,9411,Precision,0.916566
Pca,Strain,95,2982192389,20,14,2.150000,9411,Recall,0.914151
Pca,Strain,95,2982192389,20,14,2.150000,9411,Adjusted Rand Index,0.831996
Pca,Strain,96,2982193390,20,15,1.983333,9411,Precision,0.915688
Pca,Strain,96,2982193390,20,15,1.983333,9411,Recall,0.910308
Pca,Strain,96,2982193390,20,15,1.983333,9411,Adjusted Rand Index,0.835922
Pca,Strain,97,2982194393,20,16,1.750000,9411,Precision,0.944890
Pca,Strain,97,2982194393,20,16,1.750000,9411,Recall,0.932704
Pca,Strain,97,2982194393,20,16,1.750000,9411,Adjusted Rand Index,0.852489
Pca,Strain,98,2982195389,20,17,1.600000,9411,Precision,0.945329
Pca,Strain,98,2982195389,20,17,1.600000,9411,Recall,0.925129
Pca,Strain,98,2982195389,20,17,1.600000,9411,Adjusted Rand Index,0.841893
Pca,Strain,99,2982196389,20,18,1.866667,9411,Precision,0.946756
Pca,Strain,99,2982196389,20,18,1.866667,9411,Recall,0.928642
Pca,Strain,99,2982196389,20,18,1.866667,9411,Adjusted Rand Index,0.847293
Pca,Strain,100,996279230,20,65,3.383333,9411,Precision,0.949281
Pca,Strain,100,996279230,20,65,3.383333,9411,Recall,0.947964
Pca,Strain,100,996279230,20,65,3.383333,9411,Adjusted Rand Index,0.942525
Samples,Species,2,2532924563,84,2,19.383333,37627,Precision,0.329731
Samples,Species,2,2532924563,84,2,19.383333,37627,Recall,0.800048
Samples,Species,2,2532924563,84,2,19.383333,37627,Adjusted Rand Index,0.044257
Samples,Species,4,2532926561,101,4,16.450000,37627,Precision,0.506549
Samples,Species,4,2532926561,101,4,16.450000,37627,Recall,0.837424
Samples,Species,4,2532926561,101,4,16.450000,37627,Adjusted Rand Index,0.232273
Samples,Species,6,2532928564,101,6,16.116667,37627,Precision,0.612315
Samples,Species,6,2532928564,101,6,16.116667,37627,Recall,0.872058
Samples,Species,6,2532928564,101,6,16.116667,37627,Adjusted Rand Index,0.224041
Samples,Species,8,2532930562,101,6,19.100000,37627,Precision,0.610558
Samples,Species,8,2532930562,101,6,19.100000,37627,Recall,0.832127
Samples,Species,8,2532930562,101,6,19.100000,37627,Adjusted Rand Index,0.194209
Samples,Species,10,2114081298,101,9,15.783333,37627,Precision,0.756788
Samples,Species,10,2114081298,101,9,15.783333,37627,Recall,0.919045
Samples,Species,10,2114081298,101,9,15.783333,37627,Adjusted Rand Index,0.524313
Samples,Species,12,2114083300,101,9,17.350000,37627,Precision,0.776701
Samples,Species,12,2114083300,101,9,17.350000,37627,Recall,0.917767
Samples,Species,12,2114083300,101,9,17.350000,37627,Adjusted Rand Index,0.596100
Samples,Species,14,2114085300,101,11,26.566667,37627,Precision,0.771164
Samples,Species,14,2114085300,101,11,26.566667,37627,Recall,0.928708
Samples,Species,14,2114085300,101,11,26.566667,37627,Adjusted Rand Index,0.640062
Samples,Species,16,2114087300,101,11,17.200000,37627,Precision,0.830742
Samples,Species,16,2114087300,101,11,17.200000,37627,Recall,0.909994
Samples,Species,16,2114087300,101,11,17.200000,37627,Adjusted Rand Index,0.584850
Samples,Species,18,2114089296,101,13,14.800000,37627,Precision,0.823421
Samples,Species,18,2114089296,101,13,14.800000,37627,Recall,0.942818
Samples,Species,18,2114089296,101,13,14.800000,37627,Adjusted Rand Index,0.624075
Samples,Species,20,2115081296,101,14,15.966667,37627,Precision,0.886727
Samples,Species,20,2115081296,101,14,15.966667,37627,Recall,0.935523
Samples,Species,20,2115081296,101,14,15.966667,37627,Adjusted Rand Index,0.817901
Samples,Species,22,2115083300,101,15,18.800000,37627,Precision,0.873070
Samples,Species,22,2115083300,101,15,18.800000,37627,Recall,0.932329
Samples,Species,22,2115083300,101,15,18.800000,37627,Adjusted Rand Index,0.792787
Samples,Species,24,2115085298,101,16,16.666667,37627,Precision,0.889016
Samples,Species,24,2115085298,101,16,16.666667,37627,Recall,0.939996
Samples,Species,24,2115085298,101,16,16.666667,37627,Adjusted Rand Index,0.813384
Samples,Species,26,2115087298,101,17,16.583333,37627,Precision,0.907837
Samples,Species,26,2115087298,101,17,16.583333,37627,Recall,0.916676
Samples,Species,26,2115087298,101,17,16.583333,37627,Adjusted Rand Index,0.776549
Samples,Species,28,2115089300,101,18,14.233333,37627,Precision,0.873869
Samples,Species,28,2115089300,101,18,14.233333,37627,Recall,0.941380
Samples,Species,28,2115089300,101,18,14.233333,37627,Adjusted Rand Index,0.800543
Samples,Species,30,2116081300,101,19,44.233333,37627,Precision,0.908636
Samples,Species,30,2116081300,101,19,44.233333,37627,Recall,0.957832
Samples,Species,30,2116081300,101,19,44.233333,37627,Adjusted Rand Index,0.883546
Samples,Species,32,2116083299,101,20,26.116667,37627,Precision,0.897215
Samples,Species,32,2116083299,101,20,26.116667,37627,Recall,0.940049
Samples,Species,32,2116083299,101,20,26.116667,37627,Adjusted Rand Index,0.846402
Samples,Species,34,2116085297,101,21,12.383333,37627,Precision,0.950032
Samples,Species,34,2116085297,101,21,12.383333,37627,Recall,0.966910
Samples,Species,34,2116085297,101,21,12.383333,37627,Adjusted Rand Index,0.933000
Samples,Species,36,2116087296,101,21,17.133333,37627,Precision,0.922825
Samples,Species,36,2116087296,101,21,17.133333,37627,Recall,0.948701
Samples,Species,36,2116087296,101,21,17.133333,37627,Adjusted Rand Index,0.893815
Samples,Species,38,2116089300,101,22,14.783333,37627,Precision,0.919471
Samples,Species,38,2116089300,101,22,14.783333,37627,Recall,0.946678
Samples,Species,38,2116089300,101,22,14.783333,37627,Adjusted Rand Index,0.894992
Samples,Species,40,2117081298,101,23,22.916667,37627,Precision,0.917101
Samples,Species,40,2117081298,101,23,22.916667,37627,Recall,0.950192
Samples,Species,40,2117081298,101,23,22.916667,37627,Adjusted Rand Index,0.880757
Samples,Species,42,2117083299,101,24,17.633333,37627,Precision,0.959110
Samples,Species,42,2117083299,101,24,17.633333,37627,Recall,0.967575
Samples,Species,42,2117083299,101,24,17.633333,37627,Adjusted Rand Index,0.943747
Samples,Species,44,2117085299,101,24,20.350000,37627,Precision,0.944388
Samples,Species,44,2117085299,101,24,20.350000,37627,Recall,0.959882
Samples,Species,44,2117085299,101,24,20.350000,37627,Adjusted Rand Index,0.917462
Samples,Species,46,2117087296,101,25,32.016667,37627,Precision,0.939703
Samples,Species,46,2117087296,101,25,32.016667,37627,Recall,0.958604
Samples,Species,46,2117087296,101,25,32.016667,37627,Adjusted Rand Index,0.911714
Samples,Species,48,2117089298,101,26,14.300000,37627,Precision,0.955702
Samples,Species,48,2117089298,101,26,14.300000,37627,Recall,0.973033
Samples,Species,48,2117089298,101,26,14.300000,37627,Adjusted Rand Index,0.942484
Samples,Species,50,2118081296,101,27,16.783333,37627,Precision,0.973698
Samples,Species,50,2118081296,101,27,16.783333,37627,Recall,0.974710
Samples,Species,50,2118081296,101,27,16.783333,37627,Adjusted Rand Index,0.957359
Samples,Species,52,2118083297,101,27,24.716667,37627,Precision,0.930039
Samples,Species,52,2118083297,101,27,24.716667,37627,Recall,0.949606
Samples,Species,52,2118083297,101,27,24.716667,37627,Adjusted Rand Index,0.885116
Samples,Species,54,2118085298,101,27,24.516667,37627,Precision,0.944468
Samples,Species,54,2118085298,101,27,24.516667,37627,Recall,0.962012
Samples,Species,54,2118085298,101,27,24.516667,37627,Adjusted Rand Index,0.922892
Samples,Species,56,2118087298,101,28,28.866667,37627,Precision,0.965286
Samples,Species,56,2118087298,101,28,28.866667,37627,Recall,0.974044
Samples,Species,56,2118087298,101,28,28.866667,37627,Adjusted Rand Index,0.951518
Samples,Species,58,2118089296,101,30,24.433333,37627,Precision,0.971888
Samples,Species,58,2118089296,101,30,24.433333,37627,Recall,0.974523
Samples,Species,58,2118089296,101,30,24.433333,37627,Adjusted Rand Index,0.956475
Samples,Species,60,2119081297,101,30,17.216667,37627,Precision,0.950910
Samples,Species,60,2119081297,101,30,17.216667,37627,Recall,0.974257
Samples,Species,60,2119081297,101,30,17.216667,37627,Adjusted Rand Index,0.944091
Samples,Species,62,2119083296,101,30,24.783333,37627,Precision,0.961985
Samples,Species,62,2119083296,101,30,24.783333,37627,Recall,0.971462
Samples,Species,62,2119083296,101,30,24.783333,37627,Adjusted Rand Index,0.953146
Samples,Species,64,2119085296,101,30,18.050000,37627,Precision,0.972181
Samples,Species,64,2119085296,101,30,18.050000,37627,Recall,0.975588
Samples,Species,64,2119085296,101,30,18.050000,37627,Adjusted Rand Index,0.956721
Samples,Species,66,2119087300,101,30,16.966667,37627,Precision,0.970211
Samples,Species,66,2119087300,101,30,16.966667,37627,Recall,0.975855
Samples,Species,66,2119087300,101,30,16.966667,37627,Adjusted Rand Index,0.957533
Samples,Species,68,2119089297,101,32,15.233333,37627,Precision,0.968773
Samples,Species,68,2119089297,101,32,15.233333,37627,Recall,0.977319
Samples,Species,68,2119089297,101,32,15.233333,37627,Adjusted Rand Index,0.954847
Samples,Species,70,2120081296,101,30,20.466667,37627,Precision,0.952960
Samples,Species,70,2120081296,101,30,20.466667,37627,Recall,0.970770
Samples,Species,70,2120081296,101,30,20.466667,37627,Adjusted Rand Index,0.942483
Samples,Species,72,2120083299,101,31,18.616667,37627,Precision,0.964753
Samples,Species,72,2120083299,101,31,18.616667,37627,Recall,0.963396
Samples,Species,72,2120083299,101,31,18.616667,37627,Adjusted Rand Index,0.941584
Samples,Species,74,2120085299,101,33,27.866667,37627,Precision,0.968933
Samples,Species,74,2120085299,101,33,27.866667,37627,Recall,0.973166
Samples,Species,74,2120085299,101,33,27.866667,37627,Adjusted Rand Index,0.953331
Samples,Species,76,2120087299,101,33,19.166667,37627,Precision,0.966697
Samples,Species,76,2120087299,101,33,19.166667,37627,Recall,0.974657
Samples,Species,76,2120087299,101,33,19.166667,37627,Adjusted Rand Index,0.954347
Samples,Species,78,2120089297,101,34,23.316667,37627,Precision,0.974124
Samples,Species,78,2120089297,101,34,23.316667,37627,Recall,0.979022
Samples,Species,78,2120089297,101,34,23.316667,37627,Adjusted Rand Index,0.963141
Samples,Species,80,2121081296,101,34,29.516667,37627,Precision,0.980913
Samples,Species,80,2121081296,101,34,29.516667,37627,Recall,0.977265
Samples,Species,80,2121081296,101,34,29.516667,37627,Adjusted Rand Index,0.965448
Samples,Species,82,2121083299,101,34,19.100000,37627,Precision,0.978969
Samples,Species,82,2121083299,101,34,19.100000,37627,Recall,0.979928
Samples,Species,82,2121083299,101,34,19.100000,37627,Adjusted Rand Index,0.966308
Samples,Species,84,2121085297,101,34,15.350000,37627,Precision,0.976360
Samples,Species,84,2121085297,101,34,15.350000,37627,Recall,0.979954
Samples,Species,84,2121085297,101,34,15.350000,37627,Adjusted Rand Index,0.965681
Samples,Species,86,2121087299,101,35,30.216667,37627,Precision,0.975961
Samples,Species,86,2121087299,101,35,30.216667,37627,Recall,0.980300
Samples,Species,86,2121087299,101,35,30.216667,37627,Adjusted Rand Index,0.962859
Samples,Species,88,2121089299,101,35,34.433333,37627,Precision,0.968374
Samples,Species,88,2121089299,101,35,34.433333,37627,Recall,0.970637
Samples,Species,88,2121089299,101,35,34.433333,37627,Adjusted Rand Index,0.947990
Samples,Species,90,2122081296,101,36,15.950000,37627,Precision,0.977425
Samples,Species,90,2122081296,101,36,15.950000,37627,Recall,0.981818
Samples,Species,90,2122081296,101,36,15.950000,37627,Adjusted Rand Index,0.967489
Samples,Species,92,2122083299,101,36,32.916667,37627,Precision,0.972554
Samples,Species,92,2122083299,101,36,32.916667,37627,Recall,0.969891
Samples,Species,92,2122083299,101,36,32.916667,37627,Adjusted Rand Index,0.950656
Samples,Species,94,2122085300,101,36,19.100000,37627,Precision,0.980274
Samples,Species,94,2122085300,101,36,19.100000,37627,Recall,0.981072
Samples,Species,94,2122085300,101,36,19.100000,37627,Adjusted Rand Index,0.967907
Samples,Species,96,2122087296,101,36,21.216667,37627,Precision,0.977319
Samples,Species,96,2122087296,101,36,21.216667,37627,Recall,0.981658
Samples,Species,96,2122087296,101,36,21.216667,37627,Adjusted Rand Index,0.967414
Samples,Strain,2,4265768873,20,3,2.933333,9411,Precision,0.729498
Samples,Strain,2,4265768873,20,3,2.933333,9411,Recall,0.846635
Samples,Strain,2,4265768873,20,3,2.933333,9411,Adjusted Rand Index,0.696056
Samples,Strain,4,4265770871,20,4,1.516667,9411,Precision,0.830278
Samples,Strain,4,4265770871,20,4,1.516667,9411,Recall,0.866945
Samples,Strain,4,4265770871,20,4,1.516667,9411,Adjusted Rand Index,0.773711
Samples,Strain,6,4265772875,20,5,1.333333,9411,Precision,0.804040
Samples,Strain,6,4265772875,20,5,1.333333,9411,Recall,0.851685
Samples,Strain,6,4265772875,20,5,1.333333,9411,Adjusted Rand Index,0.716237
Samples,Strain,8,4265774874,20,6,1.550000,9411,Precision,0.836206
Samples,Strain,8,4265774874,20,6,1.550000,9411,Recall,0.845318
Samples,Strain,8,4265774874,20,6,1.550000,9411,Adjusted Rand Index,0.736187
Samples,Strain,10,1939089288,20,6,1.916667,9411,Precision,0.834120
Samples,Strain,10,1939089288,20,6,1.916667,9411,Recall,0.828851
Samples,Strain,10,1939089288,20,6,1.916667,9411,Adjusted Rand Index,0.691675
Samples,Strain,12,1939091284,20,6,1.400000,9411,Precision,0.855857
Samples,Strain,12,1939091284,20,6,1.400000,9411,Recall,0.864200
Samples,Strain,12,1939091284,20,6,1.400000,9411,Adjusted Rand Index,0.820924
Samples,Strain,14,1939093284,20,7,1.383333,9411,Precision,0.858272
Samples,Strain,14,1939093284,20,7,1.383333,9411,Recall,0.858382
Samples,Strain,14,1939093284,20,7,1.383333,9411,Adjusted Rand Index,0.728579
Samples,Strain,16,1939095286,20,8,1.366667,9411,Precision,0.898781
Samples,Strain,16,1939095286,20,8,1.366667,9411,Recall,0.900209
Samples,Strain,16,1939095286,20,8,1.366667,9411,Adjusted Rand Index,0.831417
Samples,Strain,18,1939097284,20,9,1.383333,9411,Precision,0.869580
Samples,Strain,18,1939097284,20,9,1.383333,9411,Recall,0.858492
Samples,Strain,18,1939097284,20,9,1.383333,9411,Adjusted Rand Index,0.742251
Samples,Strain,20,1940089284,20,9,1.550000,9411,Precision,0.894829
Samples,Strain,20,1940089284,20,9,1.550000,9411,Recall,0.896476
Samples,Strain,20,1940089284,20,9,1.550000,9411,Adjusted Rand Index,0.804585
Samples,Strain,22,1940091287,20,9,1.883333,9411,Precision,0.898342
Samples,Strain,22,1940091287,20,9,1.883333,9411,Recall,0.847623
Samples,Strain,22,1940091287,20,9,1.883333,9411,Adjusted Rand Index,0.711248
Samples,Strain,24,1940093284,20,10,1.900000,9411,Precision,0.855088
Samples,Strain,24,1940093284,20,10,1.900000,9411,Recall,0.803491
Samples,Strain,24,1940093284,20,10,1.900000,9411,Adjusted Rand Index,0.613345
Samples,Strain,26,1940095284,20,9,1.283333,9411,Precision,0.892963
Samples,Strain,26,1940095284,20,9,1.283333,9411,Recall,0.894280
Samples,Strain,26,1940095284,20,9,1.283333,9411,Adjusted Rand Index,0.830431
Samples,Strain,28,1940097284,20,9,1.816667,9411,Precision,0.871007
Samples,Strain,28,1940097284,20,9,1.816667,9411,Recall,0.893512
Samples,Strain,28,1940097284,20,9,1.816667,9411,Adjusted Rand Index,0.818821
Samples,Strain,30,1941089284,20,10,1.583333,9411,Precision,0.895708
Samples,Strain,30,1941089284,20,10,1.583333,9411,Recall,0.903831
Samples,Strain,30,1941089284,20,10,1.583333,9411,Adjusted Rand Index,0.828490
Samples,Strain,32,1941091284,20,10,1.416667,9411,Precision,0.883961
Samples,Strain,32,1941091284,20,10,1.416667,9411,Recall,0.890328
Samples,Strain,32,1941091284,20,10,1.416667,9411,Adjusted Rand Index,0.788280
Samples,Strain,34,1941093284,20,10,1.500000,9411,Precision,0.891206
Samples,Strain,34,1941093284,20,10,1.500000,9411,Recall,0.895598
Samples,Strain,34,1941093284,20,10,1.500000,9411,Adjusted Rand Index,0.820232
Samples,Strain,36,1941095284,20,10,1.466667,9411,Precision,0.899769
Samples,Strain,36,1941095284,20,10,1.466667,9411,Recall,0.907125
Samples,Strain,36,1941095284,20,10,1.466667,9411,Adjusted Rand Index,0.832814
Samples,Strain,38,1941097284,20,10,1.333333,9411,Precision,0.884180
Samples,Strain,38,1941097284,20,10,1.333333,9411,Recall,0.887803
Samples,Strain,38,1941097284,20,10,1.333333,9411,Adjusted Rand Index,0.800051
Samples,Strain,40,1942089284,20,10,1.383333,9411,Precision,0.888242
Samples,Strain,40,1942089284,20,10,1.383333,9411,Recall,0.895268
Samples,Strain,40,1942089284,20,10,1.383333,9411,Adjusted Rand Index,0.825909
Samples,Strain,42,1942091284,20,11,1.600000,9411,Precision,0.882095
Samples,Strain,42,1942091284,20,11,1.600000,9411,Recall,0.885717
Samples,Strain,42,1942091284,20,11,1.600000,9411,Adjusted Rand Index,0.795270
Samples,Strain,44,1942093284,20,10,1.533333,9411,Precision,0.895488
Samples,Strain,44,1942093284,20,10,1.533333,9411,Recall,0.888791
Samples,Strain,44,1942093284,20,10,1.533333,9411,Adjusted Rand Index,0.809689
Samples,Strain,46,1942095286,20,11,1.383333,9411,Precision,0.887913
Samples,Strain,46,1942095286,20,11,1.383333,9411,Recall,0.906466
Samples,Strain,46,1942095286,20,11,1.383333,9411,Adjusted Rand Index,0.821937
Samples,Strain,48,1942097284,20,11,1.483333,9411,Precision,0.902075
Samples,Strain,48,1942097284,20,11,1.483333,9411,Recall,0.890548
Samples,Strain,48,1942097284,20,11,1.483333,9411,Adjusted Rand Index,0.790156
Samples,Strain,50,1943089284,20,11,1.550000,9411,Precision,0.901746
Samples,Strain,50,1943089284,20,11,1.550000,9411,Recall,0.892414
Samples,Strain,50,1943089284,20,11,1.550000,9411,Adjusted Rand Index,0.798389
Samples,Strain,52,1943091284,20,11,1.433333,9411,Precision,0.876606
Samples,Strain,52,1943091284,20,11,1.433333,9411,Recall,0.881546
Samples,Strain,52,1943091284,20,11,1.433333,9411,Adjusted Rand Index,0.792485
Samples,Strain,54,1943093286,20,11,1.400000,9411,Precision,0.888682
Samples,Strain,54,1943093286,20,11,1.400000,9411,Recall,0.892524
Samples,Strain,54,1943093286,20,11,1.400000,9411,Adjusted Rand Index,0.798766
Samples,Strain,56,1943095284,20,11,2.033333,9411,Precision,0.884180
Samples,Strain,56,1943095284,20,11,2.033333,9411,Recall,0.898123
Samples,Strain,56,1943095284,20,11,2.033333,9411,Adjusted Rand Index,0.810254
Samples,Strain,58,1943097284,20,11,1.533333,9411,Precision,0.906686
Samples,Strain,58,1943097284,20,11,1.533333,9411,Recall,0.900867
Samples,Strain,58,1943097284,20,11,1.533333,9411,Adjusted Rand Index,0.811627
Samples,Strain,60,1944089284,20,11,1.450000,9411,Precision,0.890109
Samples,Strain,60,1944089284,20,11,1.450000,9411,Recall,0.897903
Samples,Strain,60,1944089284,20,11,1.450000,9411,Adjusted Rand Index,0.823535
Samples,Strain,62,1944091284,20,11,1.733333,9411,Precision,0.895817
Samples,Strain,62,1944091284,20,11,1.733333,9411,Recall,0.887145
Samples,Strain,62,1944091284,20,11,1.733333,9411,Adjusted Rand Index,0.794274
Samples,Strain,64,1944093286,20,11,1.483333,9411,Precision,0.898452
Samples,Strain,64,1944093286,20,11,1.483333,9411,Recall,0.890548
Samples,Strain,64,1944093286,20,11,1.483333,9411,Adjusted Rand Index,0.793419
Threshold,Species,1,3302705114,101,35,27.716667,41029,Precision,0.974843
Threshold,Species,1,3302705114,101,35,27.716667,41029,Recall,0.974098
Threshold,Species,1,3302705114,101,35,27.716667,41029,Adjusted Rand Index,0.956343
Threshold,Species,500,3814071476,101,36,25.800000,39350,Precision,0.974550
Threshold,Species,500,3814071476,101,36,25.800000,39350,Recall,0.973911
Threshold,Species,500,3814071476,101,36,25.800000,39350,Adjusted Rand Index,0.953963
Threshold,Species,1000,3050035013,101,36,33.466667,37627,Precision,0.975855
Threshold,Species,1000,3050035013,101,36,33.466667,37627,Recall,0.978836
Threshold,Species,1000,3050035013,101,36,33.466667,37627,Adjusted Rand Index,0.965795
Threshold,Species,1500,3755067721,101,37,14.316667,36227,Precision,0.993345
Threshold,Species,1500,3755067721,101,37,14.316667,36227,Recall,0.992200
Threshold,Species,1500,3755067721,101,37,14.316667,36227,Adjusted Rand Index,0.989038
Threshold,Species,2000,2322655509,101,37,29.033333,35119,Precision,0.990283
Threshold,Species,2000,2322655509,101,37,29.033333,35119,Recall,0.988872
Threshold,Species,2000,2322655509,101,37,29.033333,35119,Adjusted Rand Index,0.984090
Threshold,Species,2500,3027688219,101,37,13.683333,34390,Precision,0.989884
Threshold,Species,2500,3027688219,101,37,13.683333,34390,Recall,0.994356
Threshold,Species,2500,3027688219,101,37,13.683333,34390,Adjusted Rand Index,0.987490
Threshold,Species,3000,1595276009,101,37,11.766667,33807,Precision,0.995741
Threshold,Species,3000,1595276009,101,37,11.766667,33807,Recall,0.995741
Threshold,Species,3000,1595276009,101,37,11.766667,33807,Adjusted Rand Index,0.988491
Threshold,Species,3500,2300308716,101,37,11.833333,33400,Precision,0.995448
Threshold,Species,3500,2300308716,101,37,11.833333,33400,Recall,0.995448
Threshold,Species,3500,2300308716,101,37,11.833333,33400,Adjusted Rand Index,0.987336
Threshold,Species,4000,867896505,101,37,11.000000,33063,Precision,0.993904
Threshold,Species,4000,867896505,101,37,11.000000,33063,Recall,0.993904
Threshold,Species,4000,867896505,101,37,11.000000,33063,Adjusted Rand Index,0.975417
Threshold,Species,4500,1572929211,101,37,15.300000,32813,Precision,0.990336
Threshold,Species,4500,1572929211,101,37,15.300000,32813,Recall,0.990336
Threshold,Species,4500,1572929211,101,37,15.300000,32813,Adjusted Rand Index,0.955139
Threshold,Species,5000,140517003,101,37,14.283333,32610,Precision,0.987781
Threshold,Species,5000,140517003,101,37,14.283333,32610,Recall,0.987781
Threshold,Species,5000,140517003,101,37,14.283333,32610,Adjusted Rand Index,0.940771
Threshold,Species,5500,845549710,101,37,12.533333,32438,Precision,0.987435
Threshold,Species,5500,845549710,101,37,12.533333,32438,Recall,0.987435
Threshold,Species,5500,845549710,101,37,12.533333,32438,Adjusted Rand Index,0.938672
Threshold,Species,6000,3708104799,101,37,22.016667,32294,Precision,0.981099
Threshold,Species,6000,3708104799,101,37,22.016667,32294,Recall,0.983628
Threshold,Species,6000,3708104799,101,37,22.016667,32294,Adjusted Rand Index,0.931216
Threshold,Species,6500,118170210,101,37,11.183333,32177,Precision,0.981658
Threshold,Species,6500,118170210,101,37,11.183333,32177,Recall,0.994063
Threshold,Species,6500,118170210,101,37,11.183333,32177,Adjusted Rand Index,0.930491
Threshold,Species,7000,2980725296,101,37,11.100000,32056,Precision,0.982457
Threshold,Species,7000,2980725296,101,37,11.100000,32056,Recall,0.994010
Threshold,Species,7000,2980725296,101,37,11.100000,32056,Adjusted Rand Index,0.933667
Threshold,Species,7500,3685758000,101,37,22.350000,31950,Precision,0.980779
Threshold,Species,7500,3685758000,101,37,22.350000,31950,Recall,0.980779
Threshold,Species,7500,3685758000,101,37,22.350000,31950,Adjusted Rand Index,0.902286
Threshold,Species,8000,2253345792,101,37,10.266667,31875,Precision,0.982217
Threshold,Species,8000,2253345792,101,37,10.266667,31875,Recall,0.994516
Threshold,Species,8000,2253345792,101,37,10.266667,31875,Adjusted Rand Index,0.934031
Threshold,Species,8500,2958378500,101,37,17.716667,31788,Precision,0.982350
Threshold,Species,8500,2958378500,101,37,17.716667,31788,Recall,0.993265
Threshold,Species,8500,2958378500,101,37,17.716667,31788,Adjusted Rand Index,0.933192
Threshold,Species,9000,1525966291,101,37,10.816667,31718,Precision,0.982244
Threshold,Species,9000,1525966291,101,37,10.816667,31718,Recall,0.994756
Threshold,Species,9000,1525966291,101,37,10.816667,31718,Adjusted Rand Index,0.933219
Threshold,Species,9500,2230998996,101,37,17.566667,31654,Precision,0.982164
Threshold,Species,9500,2230998996,101,37,17.566667,31654,Recall,0.993158
Threshold,Species,9500,2230998996,101,37,17.566667,31654,Adjusted Rand Index,0.932440
Threshold,Species,10000,608231511,101,34,6.583333,3626,Precision,0.966111
Threshold,Species,10000,608231511,101,34,6.583333,3626,Recall,0.993558
Threshold,Species,10000,608231511,101,34,6.583333,3626,Adjusted Rand Index,0.920003
Threshold,Strain,1,1333074991,20,11,1.833333,11471,Precision,0.901855
Threshold,Strain,1,1333074991,20,11,1.833333,11471,Recall,0.851246
Threshold,Strain,1,1333074991,20,11,1.833333,11471,Adjusted Rand Index,0.710907
Threshold,Strain,500,2746470773,20,11,1.783333,10586,Precision,0.898781
Threshold,Strain,500,2746470773,20,11,1.783333,10586,Recall,0.890109
Threshold,Strain,500,2746470773,20,11,1.783333,10586,Adjusted Rand Index,0.793388
Threshold,Strain,1000,1674963852,20,11,1.616667,9411,Precision,0.898452
Threshold,Strain,1000,1674963852,20,11,1.616667,9411,Recall,0.890548
Threshold,Strain,1000,1674963852,20,11,1.616667,9411,Adjusted Rand Index,0.793419
Threshold,Strain,1500,2379996556,20,11,1.516667,8118,Precision,0.888023
Threshold,Strain,1500,2379996556,20,11,1.516667,8118,Recall,0.888242
Threshold,Strain,1500,2379996556,20,11,1.516667,8118,Adjusted Rand Index,0.805052
Threshold,Strain,2000,947584348,20,11,1.500000,7245,Precision,0.902185
Threshold,Strain,2000,947584348,20,11,1.500000,7245,Recall,0.915688
Threshold,Strain,2000,947584348,20,11,1.500000,7245,Adjusted Rand Index,0.822982
Threshold,Strain,2500,1652617058,20,11,1.416667,6673,Precision,0.898891
Threshold,Strain,2500,1652617058,20,11,1.416667,6673,Recall,0.935009
Threshold,Strain,2500,1652617058,20,11,1.416667,6673,Adjusted Rand Index,0.879983
Threshold,Strain,3000,220204846,20,11,1.283333,6373,Precision,0.904051
Threshold,Strain,3000,220204846,20,11,1.283333,6373,Recall,0.943463
Threshold,Strain,3000,220204846,20,11,1.283333,6373,Adjusted Rand Index,0.891029
Threshold,Strain,3500,925237554,20,11,1.466667,6164,Precision,0.900318
Threshold,Strain,3500,925237554,20,11,1.466667,6164,Recall,0.937534
Threshold,Strain,3500,925237554,20,11,1.466667,6164,Adjusted Rand Index,0.883515
Threshold,Strain,4000,3787792638,20,11,1.516667,6028,Precision,0.898233
Threshold,Strain,4000,3787792638,20,11,1.516667,6028,Recall,0.935229
Threshold,Strain,4000,3787792638,20,11,1.516667,6028,Adjusted Rand Index,0.878657
Threshold,Strain,4500,197858054,20,11,1.483333,5915,Precision,0.898562
Threshold,Strain,4500,197858054,20,11,1.483333,5915,Recall,0.930728
Threshold,Strain,4500,197858054,20,11,1.483333,5915,Adjusted Rand Index,0.863854
Threshold,Strain,5000,3060413136,20,11,1.250000,5831,Precision,0.886047
Threshold,Strain,5000,3060413136,20,11,1.250000,5831,Recall,0.924580
Threshold,Strain,5000,3060413136,20,11,1.250000,5831,Adjusted Rand Index,0.813642
Threshold,Strain,5500,3765445845,20,11,1.450000,5780,Precision,0.880887
Threshold,Strain,5500,3765445845,20,11,1.450000,5780,Recall,0.924251
Threshold,Strain,5500,3765445845,20,11,1.450000,5780,Adjusted Rand Index,0.804073
Threshold,Strain,6000,2333033637,20,11,1.383333,5726,Precision,0.876386
Threshold,Strain,6000,2333033637,20,11,1.383333,5726,Recall,0.925897
Threshold,Strain,6000,2333033637,20,11,1.383333,5726,Adjusted Rand Index,0.790686
Threshold,Strain,6500,3038066341,20,11,1.333333,5680,Precision,0.876825
Threshold,Strain,6500,3038066341,20,11,1.333333,5680,Recall,0.932155
Threshold,Strain,6500,3038066341,20,11,1.333333,5680,Adjusted Rand Index,0.781320
Threshold,Strain,7000,1605654133,20,11,1.283333,5652,Precision,0.904600
Threshold,Strain,7000,1605654133,20,11,1.283333,5652,Recall,0.927764
Threshold,Strain,7000,1605654133,20,11,1.283333,5652,Adjusted Rand Index,0.844727
Threshold,Strain,7500,2310686840,20,11,1.350000,5625,Precision,0.876166
Threshold,Strain,7500,2310686840,20,11,1.350000,5625,Recall,0.932923
Threshold,Strain,7500,2310686840,20,11,1.350000,5625,Adjusted Rand Index,0.776352
Threshold,Strain,8000,878274630,20,11,1.366667,5597,Precision,0.873422
Threshold,Strain,8000,878274630,20,11,1.366667,5597,Recall,0.933582
Threshold,Strain,8000,878274630,20,11,1.366667,5597,Adjusted Rand Index,0.769691
Threshold,Strain,8500,1583307339,20,11,1.183333,5576,Precision,0.897025
Threshold,Strain,8500,1583307339,20,11,1.183333,5576,Recall,0.925568
Threshold,Strain,8500,1583307339,20,11,1.183333,5576,Adjusted Rand Index,0.821674
Threshold,Strain,9000,150895132,20,11,1.383333,5556,Precision,0.896696
Threshold,Strain,9000,150895132,20,11,1.383333,5556,Recall,0.918432
Threshold,Strain,9000,150895132,20,11,1.383333,5556,Adjusted Rand Index,0.816213
Threshold,Strain,9500,855927834,20,11,1.516667,5538,Precision,0.897793
Threshold,Strain,9500,855927834,20,11,1.516667,5538,Recall,0.923702
Threshold,Strain,9500,855927834,20,11,1.516667,5538,Adjusted Rand Index,0.832790
Threshold,Strain,10000,4221572171,20,11,1.250000,630,Precision,0.929191
Threshold,Strain,10000,4221572171,20,11,1.250000,630,Recall,0.945878
Threshold,Strain,10000,4221572171,20,11,1.250000,630,Adjusted Rand Index,0.874726
