Experiment,Dataset,Type,Seed,ClusterCount,PCA,Minutes,PassThreshold,Metric,Value
Total_cov,Species,0.01,3639013402,148,37,18.016667,33807,Precision,0.980167
Total_cov,Species,0.01,3639013402,148,37,18.016667,33807,Recall,0.955968
Total_cov,Species,0.01,3639013402,148,37,18.016667,33807,Adjusted Rand Index,0.945262
Total_cov,Species,0.1,2238096748,151,37,16.283333,33807,Precision,0.983149
Total_cov,Species,0.1,2238096748,151,37,16.283333,33807,Recall,0.948302
Total_cov,Species,0.1,2238096748,151,37,16.283333,33807,Adjusted Rand Index,0.941944
Total_cov,Species,1,1970784417,145,37,14.050000,33807,Precision,0.987248
Total_cov,Species,1,1970784417,145,37,14.050000,33807,Recall,0.968028
Total_cov,Species,1,1970784417,145,37,14.050000,33807,Adjusted Rand Index,0.968073
Total_cov,Species,10,468170306,146,37,17.800000,33807,Precision,0.973725
Total_cov,Species,10,468170306,146,37,17.800000,33807,Recall,0.962837
Total_cov,Species,10,468170306,146,37,17.800000,33807,Adjusted Rand Index,0.945682
Total_cov,Species,100,3240095748,145,37,16.566667,33807,Precision,0.964620
Total_cov,Species,100,3240095748,145,37,16.566667,33807,Recall,0.961373
Total_cov,Species,100,3240095748,145,37,16.566667,33807,Adjusted Rand Index,0.940674
Total_cov,Strain,0.01,2754626802,39,11,1.416667,6373,Precision,0.943792
Total_cov,Strain,0.01,2754626802,39,11,1.416667,6373,Recall,0.882644
Total_cov,Strain,0.01,2754626802,39,11,1.416667,6373,Adjusted Rand Index,0.899546
Total_cov,Strain,0.1,1558607529,39,11,1.466667,6373,Precision,0.949720
Total_cov,Strain,0.1,1558607529,39,11,1.466667,6373,Recall,0.866945
Total_cov,Strain,0.1,1558607529,39,11,1.466667,6373,Adjusted Rand Index,0.885944
Total_cov,Strain,1,1562597562,38,11,1.400000,6373,Precision,0.947634
Total_cov,Strain,1,1562597562,38,11,1.400000,6373,Recall,0.872434
Total_cov,Strain,1,1562597562,38,11,1.400000,6373,Adjusted Rand Index,0.866746
Total_cov,Strain,10,303208318,39,11,1.416667,6373,Precision,0.949610
Total_cov,Strain,10,303208318,39,11,1.416667,6373,Recall,0.865957
Total_cov,Strain,10,303208318,39,11,1.416667,6373,Adjusted Rand Index,0.886101
Total_cov,Strain,100,2560606529,38,11,1.316667,6373,Precision,0.944451
Total_cov,Strain,100,2560606529,38,11,1.316667,6373,Recall,0.869470
Total_cov,Strain,100,2560606529,38,11,1.316667,6373,Adjusted Rand Index,0.866699
Total_cov,Species,Fixed,2520437271,101,37,7.566667,33807,Precision,0.995820
Total_cov,Species,Fixed,2520437271,101,37,7.566667,33807,Recall,0.995820
Total_cov,Species,Fixed,2520437271,101,37,7.566667,33807,Adjusted Rand Index,0.991637
Total_cov,Species,Guess,3340639991,71,37,14.733333,33807,Precision,0.803509
Total_cov,Species,Guess,3340639991,71,37,14.733333,33807,Recall,0.994649
Total_cov,Species,Guess,3340639991,71,37,14.733333,33807,Adjusted Rand Index,0.742939
Total_cov,Strain,Fixed,2775947933,20,11,1.233333,6373,Precision,0.921616
Total_cov,Strain,Fixed,2775947933,20,11,1.233333,6373,Recall,0.924251
Total_cov,Strain,Fixed,2775947933,20,11,1.233333,6373,Adjusted Rand Index,0.895806
Total_cov,Strain,Guess,3596150651,17,11,1.400000,6373,Precision,0.889340
Total_cov,Strain,Guess,3596150651,17,11,1.400000,6373,Recall,0.956856
Total_cov,Strain,Guess,3596150651,17,11,1.400000,6373,Adjusted Rand Index,0.798199
Total_full,Species,0.01,3763994004,139,47,24.916667,33807,Precision,0.995182
Total_full,Species,0.01,3763994004,139,47,24.916667,33807,Recall,0.968081
Total_full,Species,0.01,3763994004,139,47,24.916667,33807,Adjusted Rand Index,0.971051
Total_full,Species,0.1,573921902,138,47,28.616667,33807,Precision,0.995128
Total_full,Species,0.1,573921902,138,47,28.616667,33807,Recall,0.973326
Total_full,Species,0.1,573921902,138,47,28.616667,33807,Adjusted Rand Index,0.980584
Total_full,Species,1,4219352750,138,47,21.266667,33807,Precision,0.967788
Total_full,Species,1,4219352750,138,47,21.266667,33807,Recall,0.955170
Total_full,Species,1,4219352750,138,47,21.266667,33807,Adjusted Rand Index,0.930226
Total_full,Species,10,621124954,140,47,16.416667,33807,Precision,0.979608
Total_full,Species,10,621124954,140,47,16.416667,33807,Recall,0.959110
Total_full,Species,10,621124954,140,47,16.416667,33807,Adjusted Rand Index,0.953705
Total_full,Species,100,1575920902,146,47,34.233333,33807,Precision,0.979608
Total_full,Species,100,1575920902,146,47,34.233333,33807,Recall,0.938452
Total_full,Species,100,1575920902,146,47,34.233333,33807,Adjusted Rand Index,0.884186
Total_full,Strain,0.01,1090451956,36,24,1.350000,6373,Precision,0.945219
Total_full,Strain,0.01,1090451956,36,24,1.350000,6373,Recall,0.866396
Total_full,Strain,0.01,1090451956,36,24,1.350000,6373,Adjusted Rand Index,0.875807
Total_full,Strain,0.1,2785304000,37,24,1.533333,6373,Precision,0.941157
Total_full,Strain,0.1,2785304000,37,24,1.533333,6373,Recall,0.864859
Total_full,Strain,0.1,2785304000,37,24,1.533333,6373,Adjusted Rand Index,0.891173
Total_full,Strain,1,412721154,38,24,1.366667,6373,Precision,0.946646
Total_full,Strain,1,412721154,38,24,1.366667,6373,Recall,0.857723
Total_full,Strain,1,412721154,38,24,1.366667,6373,Adjusted Rand Index,0.894588
Total_full,Strain,10,2551776651,39,24,1.466667,6373,Precision,0.942035
Total_full,Strain,10,2551776651,39,24,1.466667,6373,Recall,0.855747
Total_full,Strain,10,2551776651,39,24,1.466667,6373,Adjusted Rand Index,0.890259
Total_full,Strain,100,3787303000,38,24,1.416667,6373,Precision,0.941706
Total_full,Strain,100,3787303000,38,24,1.416667,6373,Recall,0.859370
Total_full,Strain,100,3787303000,38,24,1.416667,6373,Adjusted Rand Index,0.890290
Total_full,Species,Fixed,341540113,101,47,9.116667,33807,Precision,0.996033
Total_full,Species,Fixed,341540113,101,47,9.116667,33807,Recall,0.996033
Total_full,Species,Fixed,341540113,101,47,9.116667,33807,Adjusted Rand Index,0.992065
Total_full,Species,Guess,1161742835,71,47,17.450000,33807,Precision,0.810909
Total_full,Species,Guess,1161742835,71,47,17.450000,33807,Recall,0.994090
Total_full,Species,Guess,1161742835,71,47,17.450000,33807,Adjusted Rand Index,0.794312
Total_full,Strain,Fixed,396504641,20,24,1.283333,6373,Precision,0.915249
Total_full,Strain,Fixed,396504641,20,24,1.283333,6373,Recall,0.924361
Total_full,Strain,Fixed,396504641,20,24,1.283333,6373,Adjusted Rand Index,0.882690
Total_full,Strain,Guess,1216707357,11,24,1.700000,6373,Precision,0.720496
Total_full,Strain,Guess,1216707357,11,24,1.700000,6373,Recall,0.996377
Total_full,Strain,Guess,1216707357,11,24,1.700000,6373,Adjusted Rand Index,0.531455
