\relax 
\citation{HuttenhowerDirk2013}
\@writefile{toc}{\contentsline {section}{\numberline {3.1}Data sets}{8}}
\@writefile{toc}{\contentsline {subsection}{\numberline {3.1.1}Synthetic HMP data set}{8}}
\@writefile{toc}{\contentsline {subsection}{\numberline {3.1.2}Synthetic coverage dataset}{8}}
\@setckpt{datasets/datasets}{
\setcounter{page}{9}
\setcounter{equation}{0}
\setcounter{enumi}{0}
\setcounter{enumii}{0}
\setcounter{enumiii}{0}
\setcounter{enumiv}{0}
\setcounter{footnote}{0}
\setcounter{mpfootnote}{0}
\setcounter{storedpagenumber}{1}
\setcounter{part}{0}
\setcounter{chapter}{3}
\setcounter{section}{1}
\setcounter{subsection}{2}
\setcounter{subsubsection}{0}
\setcounter{paragraph}{0}
\setcounter{subparagraph}{0}
\setcounter{@ppsavesec}{0}
\setcounter{@ppsaveapp}{0}
\setcounter{vslineno}{0}
\setcounter{poemline}{0}
\setcounter{modulo@vs}{0}
\setcounter{verse}{0}
\setcounter{chrsinstr}{0}
\setcounter{newflo@tctr}{4}
\setcounter{@contsubnum}{0}
\setcounter{maxsecnumdepth}{2}
\setcounter{sheetsequence}{15}
\setcounter{lastsheet}{17}
\setcounter{lastpage}{11}
\setcounter{bvlinectr}{0}
\setcounter{cp@cntr}{0}
\setcounter{ism@mctr}{0}
\setcounter{xsm@mctr}{0}
\setcounter{csm@mctr}{0}
\setcounter{ksm@mctr}{0}
\setcounter{xksm@mctr}{0}
\setcounter{cksm@mctr}{0}
\setcounter{msm@mctr}{0}
\setcounter{xmsm@mctr}{0}
\setcounter{cmsm@mctr}{0}
\setcounter{bsm@mctr}{0}
\setcounter{workm@mctr}{0}
\setcounter{figure}{0}
\setcounter{lofdepth}{1}
\setcounter{lofdepth}{1}
\setcounter{table}{0}
\setcounter{lotdepth}{1}
\setcounter{lotdepth}{1}
\setcounter{lofdepth}{1}
\setcounter{lotdepth}{1}
}
