\relax 
\@writefile{lof}{\contentsline {figure}{\numberline {1}{\ignorespaces }}{2}}
\newlabel{fig:cumulative_average}{{1}{2}}
\@writefile{lof}{\contentsline {figure}{\numberline {2}{\ignorespaces }}{2}}
\newlabel{fig:cumulative_average_9000}{{2}{2}}
\@writefile{lof}{\contentsline {figure}{\numberline {3}{\ignorespaces }}{3}}
\newlabel{fig:cumulative_average_no_zeros}{{3}{3}}
\@writefile{lof}{\contentsline {figure}{\numberline {4}{\ignorespaces }}{3}}
\newlabel{fig:cumulative_average_no_zeros_9000}{{4}{3}}
